{
    "name": "ThirteenPixels.PlayerController",
    "references": [
        "GUID:216d5fc10a3ed7f43a61b478ca03510d"
    ],
    "includePlatforms": [],
    "excludePlatforms": [],
    "allowUnsafeCode": false,
    "overrideReferences": false,
    "precompiledReferences": [],
    "autoReferenced": true,
    "defineConstraints": [],
    "versionDefines": [],
    "noEngineReferences": false
}